Clase 2: descripción y visualización
…
## `summarise()` has grouped output by
## 'tipo'. You can override using the
## `.groups` argument.

cuartilesxtipo

## # A tibble: 30 × 2
## # Groups:   tipo [6]
##    tipo                `quantile(INF110_TOT)`
##    <fct>                                <dbl>
##  1 Menos de 5000 Hab                        4
##  2 Menos de 5000 Hab                        9
##  3 Menos de 5000 Hab                       11
##  4 Menos de 5000 Hab                       15
##  5 Menos de 5000 Hab                       43
##  6 De 5000 - 10000 Hab                      4
##  7 De 5000 - 10000 Hab                     10
##  8 De 5000 - 10000 Hab                     14
##  9 De 5000 - 10000 Hab                     18
## 10 De 5000 - 10000 Hab                     72
## # ℹ 20 more rows
…
