Repaso
…
Comparando descriptivos

juntos = juntos |>
  mutate(departa = as.factor(dpto))

tabla2 = juntos |> 
  group_by(departa) |>
  summarise(media = mean(miembros), desviacion = sd(miembros),
            mediana = median(miembros))
tabla2

## # A tibble: 25 × 4
##    departa      media desviacion mediana
##    <fct>        <dbl>      <dbl>   <dbl>
##  1 AMAZONAS      838.      1700.    214 
##  2 ÁNCASH        439.       555.    246 
##  3 APURÍMAC      685.       687.    411 
##  4 AREQUIPA      107.       151.     51 
##  5 AYACUCHO      507.       538.    308 
##  6 CAJAMARCA    1614.      1683.   1036 
##  7 CALLAO        635.       840.    240.
##  8 CUSCO         739.       714.    538.
##  9 HUANCAVELICA  594.       856.    303 
## 10 HUÁNUCO      1078.       919.    794 
## # ℹ 15 more rows
…
